Endpoint is :
https://reqres.in/api/login

Request body is :
{
    "email": "eve.holt@reqres.in",
    " ": " "
}

Response header date is : 
Mon, 04 Mar 2024 08:30:30 GMT

Response body is : 
{"error":"Missing password"}